{
	"info": {
		"_postman_id": "ebf984df-f448-4f57-bc82-d681d88e2e4a",
		"name": "b271-s33",
		"schema": "https://schema.getpostman.com/json/collection/v2.1.0/collection.json",
		"_exporter_id": "26752251"
	},
	"item": [
		{
			"name": "activity",
			"item": [
				{
					"name": "retrieve-all-todo",
					"request": {
						"method": "GET",
						"header": [],
						"url": {
							"raw": "https://jsonplaceholder.typicode.com/todos",
							"protocol": "https",
							"host": [
								"jsonplaceholder",
								"typicode",
								"com"
							],
							"path": [
								"todos"
							]
						}
					},
					"response": []
				},
				{
					"name": "retrieve-one-todo",
					"request": {
						"method": "GET",
						"header": [],
						"url": {
							"raw": "https://jsonplaceholder.typicode.com/todos/1",
							"protocol": "https",
							"host": [
								"jsonplaceholder",
								"typicode",
								"com"
							],
							"path": [
								"todos",
								"1"
							]
						}
					},
					"response": []
				},
				{
					"name": "create-todo",
					"request": {
						"method": "POST",
						"header": [],
						"body": {
							"mode": "raw",
							"raw": "{\n\t\ttitle: 'alignment meeting with stakeholders',\n\t\tdescription: 'meeting is to decide on dashboard metrics',\n\t\tstatus: 'in progress',\n\t\tdateCompleted: '2023-04-22',\n\t\tuserId: 3\n\t}",
							"options": {
								"raw": {
									"language": "javascript"
								}
							}
						},
						"url": {
							"raw": "https://jsonplaceholder.typicode.com/todos",
							"protocol": "https",
							"host": [
								"jsonplaceholder",
								"typicode",
								"com"
							],
							"path": [
								"todos"
							]
						}
					},
					"response": []
				}
			]
		}
	]
}